logs/0_BASE/kiel/005/logs/combined-traces.vcd
$timescale 1ns $end
$scope module logic $end
$var wire 1 ###$ raspi01-ch2 $end
$var wire 1 ###^ raspi01-ch8 $end
$var wire 1 #%## raspi03-ch1 $end
$var wire 1 #%#$ raspi03-ch2 $end
$var wire 1 #%#^ raspi03-ch8 $end
$var wire 1 #&#$ raspi05-ch2 $end
$var wire 1 #&#^ raspi05-ch8 $end
$var wire 1 #^## raspi09-ch1 $end
$var wire 1 #^#$ raspi09-ch2 $end
$var wire 1 #^#^ raspi09-ch8 $end
$var wire 1 $##$ raspi10-ch2 $end
$var wire 1 $##^ raspi10-ch8 $end
$var wire 1 $$#$ raspi12-ch2 $end
$var wire 1 $$#^ raspi12-ch8 $end
$var wire 1 $&## raspi14-ch1 $end
$var wire 1 $&#$ raspi14-ch2 $end
$var wire 1 $&#^ raspi14-ch8 $end
$var wire 1 $'## raspi15-ch1 $end
$var wire 1 $'#$ raspi15-ch2 $end
$var wire 1 $'#^ raspi15-ch8 $end
$var wire 1 $(## raspi16-ch1 $end
$var wire 1 $(#$ raspi16-ch2 $end
$var wire 1 $(#^ raspi16-ch8 $end
$var wire 1 $)#$ raspi20-ch2 $end
$var wire 1 $)#^ raspi20-ch8 $end
$var wire 1 $^#$ raspi21-ch2 $end
$var wire 1 $^#^ raspi21-ch8 $end
$upscope $end
$enddefinitions $end
$dumpvars
#0
0#$^^
#0
0#$^^
#0
0#$^^
#0
0#$^^
#0
0#$^^
#0
0#$^^
#0
0#$^^
#0
0#$^^
#0
0#$^^
#0
0#$^^
#0
0#$^^
#0
0#$^^
#0
0#$^^
#0
0#$^^
#0
0#$^^
#0
0#$^^
#0
0#$^^
#0
0#$^^
#0
0#$^^
#0
0#$^^
#0
0#$^^
#0
0#$^^
#0
0#$^^
#0
0#$^^
#0
0#$^^
#0
0#$^^
#0
0#$^^
#0
0#$^^
#0
0#$^^
#0
0#$^^
#0
0#$^^
#0
0#$^^
#0
0#$^^
#0
0#$^^
#0
0#$^^
#0
0#$^^
#0
0#$^^
#0
0#$^^
#0
0#$^^
#0
0#$^^
#0
0#$^^
#0
0#$^^
#0
0#$^^
#0
0#$^^
#0
0#$^^
#0
0#$^^
#0
0#$^^
#0
0#$^^
#0
0#$^^
#0
0#$^^
#0
0#$^^
#0
0#$^^
#0
0#$^^
#0
0#$^^
#0
0#$^^
#0
0#$^^
#0
0#$^^
#0
0#$^^
#0
0#$^^
#0
0#$^^
#0
0#$^^
#0
0#$^^
#0
0#$^^
#0
0#$^^
#0
0#$^^
#0
0#$^^
#0
0#$^^
#0
0#$^^
#0
0#$^^
#0
0#$^^
#0
0#$^^
#0
0#$^^
#0
0#$^^
#0
0#$^^
#0
0#$^^
#0
0#$^^
#0
0#$^^
#0
0#$^^
#0
0#$^^
#0
0#$^^
#0
0#$^^
#0
0#$^^
#0
0#$^^
#0
0#$^^
#0
0#$^^
#0
0#$^^
#0
0#$^^
#0
0#$^^
#0
0#$^^
#0
0#$^^
#0
0#$^^
#0
0#$^^
#0
0#$^^
#0
0#$^^
#0
0#$^^
#0
0#$^^
#0
0#$^^
#0
0#$^^
#0
0#$^^
#0
0#$^^
#0
0#$^^
#0
0#$^^
#0
0#$^^
#0
0#$^^
#0
0#$^^
#0
0#$^^
#0
0#$^^
#0
0#$^^
#0
0#$^^
#0
0#$^^
#0
0#$^^
#0
0#$^^
#0
0#$^^
#0
0#$^^
#0
0#$^^
#0
0#$^^
#0
0#$^^
#0
0#$^^
#0
0#$^^
#0
0#$^^
#0
0#$^^
#0
0#$^^
#0
0#$^^
#0
0#$^^
#0
0#$^^
#0
0#$^^
#0
0#$^^
#0
0#$^^
#0
0#$^^
#0
0#$^^
#0
0#$^^
#0
0#$^^
#0
0#$^^
#0
0#$^^
#0
0#$^^
#0
0#$^^
#0
0#$^^
#0
0#$^^
#0
0#$^^
#0
0#$^^
#0
0#$^^
#0
0#$^^
#0
0#$^^
#0
0#$^^
#0
0#$^^
#0
0#$^^
#0
0#$^^
#0
0#$^^
#0
0#$^^
#0
0#$^^
#0
0#$^^
#0
0#$^^
#0
0#$^^
#0
0#$^^
#0
0#$^^
#0
0#$^^
#0
0#$^^
#0
0#$^^
#0
0#$^^
#0
0#$^^
#0
0#$^^
#0
0#$^^
#0
0#$^^
#0
0#$^^
#0
0#$^^
#0
0#$^^
#0
0#$^^
#0
0#$^^
#0
0#$^^
#0
0#$^^
#0
0#$^^
#0
0#$^^
#0
0#$^^
#0
0#$^^
#0
0#$^^
#0
0#$^^
#0
0#$^^
#0
0#$^^
#0
0#$^^
#0
0#$^^
#0
0#$^^
#0
0#$^^
#0
0#$^^
#0
0#$^^
#0
0#$^^
#0
0#$^^
#0
0#$^^
#0
0#$^^
#0
0#$^^
#0
0#$^^
#0
0#$^^
#0
0#$^^
#0
0#$^^
#0
0#$^^
#0
0#$^^
#0
0#$^^
#0
0#$^^
#0
0#$^^
#0
0#$^^
#0
0#$^^
#0
0#$^^
#0
0#$^^
#0
0#$^^
#0
0#$^^
#0
0#$^^
#0
0#$^^
#0
0#$^^
#0
0#$^^
#0
0#$^^
#0
0#$^^
#0
0#$^^
#0
0#$^^
#0
0#$^^
#0
0#$^^
#0
0#$^^
#0
0#$^^
#0
0#$^^
#0
0#$^^
#0
0#$^^
#0
0#$^^
#0
0#$^^
#0
0#$^^
#0
0#$^^
#0
0#$^^
#0
0#$^^
#0
0#$^^
#0
0#$^^
#0
0#$^^
#0
0#$^^
#0
0#$^^
#0
0#$^^
#0
0#$^^
#0
0#$^^
#0
0#$^^
#0
0#$^^
#0
0#$^^
#0
0#$^^
#0
0#$^^
#0
0#$^^
#0
0#$^^
#0
0#$^^
#0
0#$^^
#0
0#$^^
#0
0#$^^
#0
0#$^^
#0
0#$^^
#0
0#$^^
#0
0#$^^
#0
0#$^^
#0
0#$^^
#0
0#$^^
#0
0#$^^
#0
0#$^^
#0
0#$^^
#0
0#$^^
#0
0#$^^
#0
0#$^^
#0
0#$^^
#0
0#$^^
#0
0#$^^
#0
0#$^^
#0
0#$^^
#0
0#$^^
#0
0#$^^
#0
0#$^^
#0
0#$^^
#0
0#$^^
#0
0#$^^
#0
0#$^^
#0
0#$^^
#0
0#$^^
#0
0#$^^
#0
0#$^^
#0
0#$^^
#0
0#$^^
#0
0#$^^
#0
0#$^^
#0
0#$^^
#0
0#$^^
#0
0#$^^
#0
0#$^^
#0
0#$^^
#0
0#$^^
#0
0#$^^
#0
0#$^^
#0
0#$^^
#0
0#$^^
#0
0#$^^
#0
0#$^^
#0
0#$^^
#0
0#$^^
#0
0#$^^
#0
0#$^^
#0
0#$^^
#0
0#$^^
#0
0#$^^
#0
0#$^^
#0
0#$^^
#0
0#$^^
#0
0#$^^
#0
0#$^^
#0
0#$^^
#0
0#$^^
#0
0#$^^
#0
0#$^^
#0
0#$^^
#0
0#$^^
#0
0#$^^
#0
0#$^^
#0
0#$^^
#0
0#$^^
#0
0#$^^
#0
0#$^^
#0
0#$^^
#0
0#$^^
#0
0#$^^
#0
0#$^^
#0
0#$^^
#0
0#$^^
#0
0#$^^
#0
0#$^^
#0
0#$^^
#0
0#$^^
#0
0#$^^
#0
0#$^^
#0
0#$^^
#0
0#$^^
#0
0#$^^
#0
0#$^^
#0
0#$^^
#0
0#$^^
#0
0#$^^
#0
0#$^^
#0
0#$^^
#0
0#$^^
#0
0#$^^
#0
0#$^^
#0
0#$^^
#0
0#$^^
#0
0#$^^
#0
0#$^^
#0
0#$^^
#0
0#$^^
#0
0#$^^
#0
0#$^^
#0
0#$^^
#0
0#$^^
#0
0#$^^
#0
0#$^^
#0
0#$^^
#0
0#$^^
#0
0#$^^
#0
0#$^^
#0
0#$^^
#0
0#$^^
#0
0#$^^
#0
0#$^^
#0
0#$^^
#0
0#$^^
#0
0#$^^
#0
0#$^^
#0
0#$^^
#0
0#$^^
#0
0#$^^
#0
0#$^^
#0
0#$^^
#0
0#$^^
#0
0#$^^
#0
0#$^^
#0
0#$^^
#0
0#$^^
#0
0#$^^
#0
0#$^^
#0
0#$^^
#0
0#$^^
#0
0#$^^
#0
0#$^^
#0
0#$^^
#0
0#$^^
#0
0#$^^
#0
0#$^^
#0
0#$^^
#0
0#$^^
#0
0#$^^
#0
0#$^^
#0
0#$^^
#0
0#$^^
#0
0#$^^
#0
0#$^^
#0
0#$^^
#0
0#$^^
#0
0#$^^
#0
0#$^^
#0
0#$^^
#0
0#$^^
#0
0#$^^
#0
0#$^^
#0
0#$^^
#0
0#$^^
#0
0#$^^
#0
0#$^^
#0
0#$^^
#0
0#$^^
#0
0#$^^
#0
0#$^^
#0
0#$^^
#0
0#$^^
#0
0#$^^
#0
0#$^^
#0
0#$^^
#0
0#$^^
#0
0#$^^
#0
0#$^^
#0
0#$^^
#0
0#$^^
#0
0#$^^
#0
0#$^^
#0
0#$^^
#0
0#$^^
#0
0#$^^
#0
0#$^^
#0
0#$^^
#0
0#$^^
#0
0#$^^
#0
0#$^^
#0
0#$^^
#0
0#$^^
#0
0#$^^
#0
0#$^^
#0
0#$^^
#0
0#$^^
#0
0#$^^
#0
0#$^^
#0
0#$^^
#0
0#$^^
#0
0#$^^
#0
0#$^^
#0
0#$^^
#0
0#$^^
#0
0#$^^
#0
0#$^^
#0
0#$^^
#0
0#$^^
#0
0#$^^
#0
0#$^^
#0
0#$^^
#0
0#$^^
#0
0#$^^
#0
0#$^^
#0
0#$^^
#0
0#$^^
#0
0#$^^
#0
0#$^^
#0
0#$^^
#0
0#$^^
#0
0#$^^
#0
0#$^^
#0
0#$^^
#0
0#$^^
#0
0#$^^
#0
0#$^^
#0
0#$^^
#0
0#$^^
#0
0#$^^
#0
0#$^^
#0
0#$^^
#0
0#$^^
#0
0#$^^
#0
0#$^^
#0
0#$^^
#0
0#$^^
#0
0#$^^
#0
0#$^^
#0
0#$^^
#0
0#$^^
#0
0#$^^
#0
0#$^^
#0
0#$^^
#0
0#$^^
#0
0#$^^
#0
0#$^^
#0
0#$^^
#0
0#$^^
#0
0#$^^
#0
0#$^^
#0
0#$^^
#0
0#$^^
#0
0#$^^
#0
0#$^^
#0
0#$^^
#0
0#$^^
#0
0#$^^
#0
0#$^^
#0
0#$^^
#0
0#$^^
#0
0#$^^
#0
0#$^^
#0
0#$^^
#0
0#$^^
#0
0#$^^
#0
0#$^^
#0
0#$^^
#0
0#$^^
#0
0#$^^
#0
0#$^^
#0
0#$^^
#0
0#$^^
#0
0#$^^
#0
0#$^^
#0
0#$^^
#0
0#$^^
#0
0#$^^
#0
0#$^^
#0
0#$^^
#0
0#$^^
#0
0#$^^
#0
0#$^^
#0
0#$^^
#0
0#$^^
#0
0#$^^
#0
0#$^^
#0
0#$^^
#0
0#$^^
#0
0#$^^
#0
0#$^^
#0
0#$^^
#0
0#$^^
#0
0#$^^
#0
0#$^^
#0
0#$^^
#0
0#$^^
#0
0#$^^
#0
0#$^^
#0
0#$^^
#0
0#$^^
#0
0#$^^
#0
0#$^^
#0
0#$^^
#0
0#$^^
#0
0#$^^
#0
0#$^^
#0
0#$^^
#0
0#$^^
#0
0#$^^
#0
0#$^^
#0
0#$^^
#0
0#$^^
#0
0#$^^
#0
0#$^^
#0
0#$^^
#0
0#$^^
#0
0#$^^
#0
0#$^^
#0
0#$^^
#0
0#$^^
#0
0#$^^
#0
0#$^^
#0
0#$^^
#0
0#$^^
#0
0#$^^
#0
0#$^^
#0
0#$^^
#0
0#$^^
#0
0#$^^
#0
0#$^^
#0
0#$^^
#0
0#$^^
#0
0#$^^
#0
0#$^^
#0
0#$^^
#0
0#$^^
#0
0#$^^
#0
0#$^^
#0
0#$^^
#0
0#$^^
#0
0#$^^
#0
0#$^^
#0
0#$^^
#0
0#$^^
#0
0#$^^
#0
0#$^^
#0
0#$^^
#0
0#$^^
#0
0#$^^
#0
0#$^^
#0
0#$^^
#0
0#$^^
#0
0#$^^
#0
0#$^^
#0
0#$^^
#0
0#$^^
#0
0#$^^
#0
0#$^^
#0
0#$^^
#0
0#$^^
#0
0#$^^
#0
0#$^^
#0
0#$^^
#0
0#$^^
#0
0#$^^
#0
0#$^^
#0
0#$^^
#0
0#$^^
#0
0#$^^
#0
0#$^^
#0
0#$^^
#0
0#$^^
#0
0#$^^
#0
0#$^^
#0
0#$^^
#0
0#$^^
#0
0#$^^
#0
0#$^^
#0
0#$^^
#0
0#$^^
#0
0#$^^
#0
0#$^^
#0
0#$^^
#0
0#$^^
#0
0#$^^
#0
0#$^^
#0
0#$^^
#0
0#$^^
#0
0#$^^
#0
0#$^^
#0
0#$^^
#0
0#$^^
#0
0#$^^
#0
0#$^^
#0
0#$^^
#0
0#$^^
#0
0#$^^
#0
0#$^^
#0
0#$^^
#0
0#$^^
#0
0#$^^
#0
0#$^^
#0
0#$^^
#0
0#$^^
#0
0#$^^
#0
0#$^^
#0
0#$^^
#0
0#$^^
#0
0#$^^
#0
0#$^^
#0
0#$^^
#0
0#$^^
#0
0#$^^
#0
0#$^^
#0
0#$^^
#0
0#$^^
#0
0#$^^
#0
0#$^^
#0
0#$^^
#0
0#$^^
#0
0#$^^
#0
0#$^^
#0
0#$^^
#0
0#$^^
#0
0#$^^
#0
0#$^^
#0
0#$^^
#0
0#$^^
#0
0#$^^
#0
0#$^^
#0
0#$^^
#0
0#$^^
#0
0#$^^
#0
0#$^^
#0
0#$^^
#0
0#$^^
#0
0#$^^
#0
0#$^^
#0
0#$^^
#0
0#$^^
#0
0#$^^
#0
0#$^^
#0
0#$^^
#0
0#$^^
#0
0#$^^
#0
0#$^^
#0
0#$^^
#0
0#$^^
#0
0#$^^
#0
0#$^^
#0
0#$^^
#0
0#$^^
#0
0#$^^
#0
0#$^^
#0
0#$^^
#0
0#$^^
#0
0#$^^
#0
0#$^^
#0
0#$^^
#0
0#$^^
#0
0#$^^
#0
0#$^^
#0
0#$^^
#0
0#$^^
#0
0#$^^
#0
0#$^^
#0
0#$^^
#0
0#$^^
#0
0#$^^
#0
0#$^^
#0
0#$^^
#0
0#$^^
#0
0#$^^
#0
0#$^^
#0
0#$^^
#0
0#$^^
#0
0#$^^
#0
0#$^^
#0
0#$^^
#0
0#$^^
#0
0#$^^
#0
0#$^^
#0
0#$^^
#0
0#$^^
#0
0#$^^
#0
0#$^^
#0
0#$^^
#0
0#$^^
#0
0#$^^
#0
0#$^^
#0
0#$^^
#0
0#$^^
#0
0#$^^
#0
0#$^^
#0
0#$^^
#0
0#$^^
#0
0#$^^
#0
0#$^^
#0
0#$^^
#0
0#$^^
#0
0#$^^
#0
0#$^^
#0
0#$^^
#0
0#$^^
#0
0#$^^
#0
0#$^^
#0
0#$^^
#0
0#$^^
#0
0#$^^
#0
0#$^^
#0
0#$^^
#0
0#$^^
#0
0#$^^
#0
0#$^^
#0
0#$^^
#0
0#$^^
#0
0#$^^
#0
0#$^^
#0
0#$^^
#0
0#$^^
#0
0#$^^
#0
0#$^^
#0
0#$^^
#0
0#$^^
#0
0#$^^
#0
0#$^^
#0
0#$^^
#0
0#$^^
#0
0#$^^
#0
0#$^^
#0
0#$^^
#0
0#$^^
#0
0#$^^
#0
0#$^^
#0
0#$^^
#0
0#$^^
#0
0#$^^
#0
0#$^^
#0
0#$^^
#0
0#$^^
#0
0#$^^
#0
0#$^^
#0
0#$^^
#0
0#$^^
#0
0#$^^
#0
0#$^^
#0
0#$^^
#0
0#$^^
#0
0#$^^
#0
0#$^^
#0
0#$^^
#0
0#$^^
#0
0#$^^
#0
0#$^^
#0
0#$^^
#0
0#$^^
#0
0#$^^
#0
0#$^^
#0
0#$^^
#0
0#$^^
#0
0#$^^
#0
0#$^^
#0
0#$^^
#0
0#$^^
#0
0#$^^
#0
0#$^^
#0
0#$^^
#0
0#$^^
#0
0#$^^
#0
0#$^^
#0
0#$^^
#0
0#$^^
#0
0#$^^
#0
0#$^^
#0
0#$^^
#0
0#$^^
#0
0#$^^
#0
0#$^^
#0
0#$^^
#0
0#$^^
#0
0#$^^
#0
0#$^^
#0
0#$^^
#0
0#$^^
#0
0#$^^
#0
0#$^^
#0
0#$^^
#0
0#$^^
#0
0#$^^
#0
0#$^^
#0
0#$^^
#0
0#$^^
#0
0#$^^
#0
0#$^^
#0
0#$^^
#0
0#$^^
#0
0#$^^
#0
0#$^^
#0
0#$^^
#0
0#$^^
#0
0#$^^
#0
0#$^^
#0
0#$^^
#0
0#$^^
#0
0#$^^
#0
0#$^^
#0
0#$^^
#0
0#$^^
#0
0#$^^
#0
0#$^^
#0
0#$^^
#0
0#$^^
#0
0#$^^
#0
0#$^^
#0
0#$^^
#0
0#$^^
#0
0#$^^
#0
0#$^^
#0
0#$^^
#0
0#$^^
#0
0#$^^
#0
0#$^^
#0
0#$^^
#0
0#$^^
#0
0#$^^
#0
0#$^^
#0
0#$^^
#0
0#$^^
#0
0#$^^
#0
0#$^^
#0
0#$^^
#0
0#$^^
#0
0#$^^
#0
0#$^^
#0
0#$^^
#0
0#$^^
#0
0#$^^
#0
0#$^^
#0
0#$^^
#0
0#$^^
#0
0#$^^
#0
0#$^^
#0
0#$^^
#0
0#$^^
#0
0#$^^
#0
0#$^^
#0
0#$^^
#0
0#$^^
#0
0#$^^
#0
0#$^^
#0
0#$^^
#0
0#$^^
#0
0#$^^
#0
0#$^^
#0
0#$^^
#0
0#$^^
#0
0#$^^
#0
0#$^^
#0
0#$^^
#0
0#$^^
#0
0#$^^
#0
0#$^^
#0
0#$^^
#0
0#$^^
#0
0#$^^
#0
0#$^^
#0
0#$^^
#0
0#$^^
#0
0#$^^
#0
0#$^^
#0
0#$^^
#0
0#$^^
#0
0#$^^
#0
0#$^^
#0
0#$^^
#0
0#$^^
#0
0#$^^
#0
0#$^^
#0
0#$^^
#0
0#$^^
#0
0#$^^
#0
0#$^^
#0
0#$^^
#0
0#$^^
#0
0#$^^
#0
0#$^^
#0
0#$^^
#0
0#$^^
#0
0#$^^
#0
0#$^^
#0
0#$^^
#0
0#$^^
#0
0#$^^
#0
0#$^^
#0
0#$^^
#0
0#$^^
#0
0#$^^
#0
0#$^^
#0
0#$^^
#0
0#$^^
#0
0#$^^
#0
0#$^^
#0
0#$^^
#0
0#$^^
#0
0#$^^
#0
0#$^^
#0
0#$^^
#0
0#$^^
#0
0#$^^
#0
0#$^^
#0
0#$^^
#0
0#$^^
#0
0#$^^
#0
0#$^^
#0
0#$^^
#0
0#$^^
#0
0#$^^
#0
0#$^^
#0
0#$^^
#0
0#$^^
#0
0#$^^
#0
0#$^^
#0
0#$^^
#0
0#$^^
#0
0#$^^
#0
0#$^^
#0
0#$^^
#0
0#$^^
#0
0#$^^
#0
0#$^^
#0
0#$^^
#0
0#$^^
#0
0#$^^
#0
0#$^^
#0
0#$^^
#0
0#$^^
#0
0#$^^
#0
0#$^^
#0
0#$^^
#0
0#$^^
#0
0#$^^
#0
0#$^^
#0
0#$^^
#0
0#$^^
#0
0#$^^
#0
0#$^^
#0
0#$^^
#0
0#$^^
#0
0#$^^
#0
0#$^^
#0
0#$^^
#0
0#$^^
#0
0#$^^
#0
0#$^^
#0
0#$^^
#0
0#$^^
#0
0#$^^
#0
0#$^^
#0
0#$^^
#0
0#$^^
#0
0#$^^
#0
0#$^^
#0
0#$^^
#0
0#$^^
#0
0#$^^
#0
0#$^^
#0
0#$^^
#0
0#$^^
#0
0#$^^
#0
0#$^^
#0
0#$^^
#0
0#$^^
#0
0#$^^
#0
0#$^^
#0
0#$^^
#0
0#$^^
#0
0#$^^
#0
0#$^^
#0
0#$^^
#0
0#$^^
#0
0#$^^
#0
0#$^^
#0
0#$^^
#0
0#$^^
#0
0#$^^
#0
0#$^^
#0
0#$^^
#0
0#$^^
#0
0#$^^
#0
0#$^^
#0
0#$^^
#0
0#$^^
#0
0#$^^
#0
0#$^^
#0
0#$^^
#0
0#$^^
#0
0#$^^
#0
0#$^^
#0
0#$^^
#0
0#$^^
#0
0#$^^
#0
0#$^^
#0
0#$^^
#0
0#$^^
#0
0#$^^
#0
0#$^^
#0
0#$^^
#0
0#$^^
#0
0#$^^
#0
0#$^^
#0
0#$^^
#0
0#$^^
#0
0#$^^
#0
0#$^^
#0
0#$^^
#0
0#$^^
#0
0#$^^
#0
0#$^^
#0
0#$^^
#0
0#$^^
#0
0#$^^
#0
0#$^^
#0
0#$^^
#0
0#$^^
#0
0#$^^
#0
0#$^^
#0
0#$^^
#0
0#$^^
#0
0#$^^
#0
0#$^^
#0
0#$^^
#0
0#$^^
#0
0#$^^
#0
0#$^^
#0
0#$^^
#0
0#$^^
#0
0#$^^
#0
0#$^^
#0
0#$^^
#0
0#$^^
#0
0#$^^
#0
0#$^^
#0
0#$^^
#0
0#$^^
#0
0#$^^
#0
0#$^^
#0
0#$^^
#0
0#$^^
#0
0#$^^
#0
0#$^^
#0
0#$^^
#0
0#$^^
#0
0#$^^
#0
0#$^^
#0
0#$^^
#0
0#$^^
#0
0#$^^
#0
0#$^^
#0
0#$^^
#0
0#$^^
#0
0#$^^
#0
0#$^^
#0
0#$^^
#0
0#$^^
#0
0#$^^
#0
0#$^^
#0
0#$^^
#0
0#$^^
#0
0#$^^
#0
0#$^^
#0
0#$^^
#0
0#$^^
#0
0#$^^
#0
0#$^^
#0
0#$^^
#0
0#$^^
#0
0#$^^
#0
0#$^^
#0
0#$^^
#0
0#$^^
#0
0#$^^
#0
0#$^^
#0
0#$^^
#0
0#$^^
#0
0#$^^
#0
0#$^^
#0
0#$^^
#0
0#$^^
#0
0#$^^
#0
0#$^^
#0
0#$^^
#0
0#$^^
#0
0#$^^
#0
0#$^^
#0
0#$^^
#0
0#$^^
#0
0#$^^
#0
0#$^^
#0
0#$^^
#0
0#$^^
#0
0#$^^
#0
0#$^^
#0
0#$^^
#0
0#$^^
#0
0#$^^
#0
0#$^^
#0
0#$^^
#0
0#$^^
#0
0#$^^
#0
0#$^^
#0
0#$^^
#0
0#$^^
#0
0#$^^
#0
0#$^^
#0
0#$^^
#0
0#$^^
#0
0#$^^
#0
0#$^^
#0
0#$^^
#0
0#$^^
#0
0#$^^
#0
0#$^^
#0
0#$^^
#0
0#$^^
#0
0#$^^
#0
0#$^^
#0
0#$^^
#0
0#$^^
#0
0#$^^
#0
0#$^^
#0
0#$^^
#0
0#$^^
#0
0#$^^
#0
0#$^^
#0
0#$^^
#0
0#$^^
#0
0#$^^
#0
0#$^^
#0
0#$^^
#0
0#$^^
#0
0#$^^
#0
0#$^^
#0
0#$^^
#0
0#$^^
#0
0#$^^
#0
0#$^^
#0
0#$^^
#0
0#$^^
#0
0#$^^
#0
0#$^^
#0
0#$^^
#0
0#$^^
#0
0#$^^
#0
0#$^^
#0
0#$^^
#0
0#$^^
#0
0#$^^
#0
0#$^^
#0
0#$^^
#0
0#$^^
#0
0#$^^
#0
0#$^^
#0
0#$^^
#0
0#$^^
#0
0#$^^
#0
0#$^^
#0
0#$^^
#0
0#$^^
#0
0#$^^
#0
0#$^^
#0
0#$^^
#0
0#$^^
#0
0#$^^
#0
0#$^^
#0
0#$^^
#0
0#$^^
#0
0#$^^
#0
0#$^^
#0
0#$^^
#0
0#$^^
#0
0#$^^
#0
0#$^^
#0
0#$^^
#0
0#$^^
#0
0#$^^
#0
0#$^^
#0
0#$^^
#0
0#$^^
#0
0#$^^
#0
0#$^^
#0
0#$^^
#0
0#$^^
#0
0#$^^
#0
0#$^^
#0
0#$^^
#0
0#$^^
#0
0#$^^
#0
0#$^^
#0
0#$^^
#0
0#$^^
#0
0#$^^
#0
0#$^^
#0
0#$^^
#0
0#$^^
#0
0#$^^
#0
0#$^^
#0
0#$^^
#0
0#$^^
#0
0#$^^
#0
0#$^^
#0
0#$^^
#0
0#$^^
#0
0#$^^
#0
0#$^^
#0
0#$^^
#0
0#$^^
#0
0#$^^
#0
0#$^^
#0
0#$^^
#0
0#$^^
#0
0#$^^
#0
0#$^^
#0
0#$^^
#0
0#$^^
#0
0#$^^
#0
0#$^^
#0
0#$^^
#0
0#$^^
#0
0#$^^
#0
0#$^^
#0
0#$^^
#0
0#$^^
#0
0#$^^
#0
0#$^^
#0
0#$^^
#0
0#$^^
#0
0#$^^
#0
0#$^^
#0
0#$^^
#0
0#$^^
#0
0#$^^
#0
0#$^^
#0
0#$^^
#0
0#$^^
#0
0#$^^
#0
0#$^^
#0
0#$^^
#0
0#$^^
#0
0#$^^
#0
0#$^^
#0
0#$^^
#0
0#$^^
#0
0#$^^
#0
0#$^^
#0
0#$^^
#0
0#$^^
#0
0#$^^
#0
0#$^^
#0
0#$^^
#0
0#$^^
#0
0#$^^
#0
0#$^^
#0
0#$^^
#0
0#$^^
#0
0#$^^
#0
0#$^^
#0
0#$^^
#0
0#$^^
#0
0#$^^
#0
0#$^^
#0
0#$^^
#0
0#$^^
#0
0#$^^
#0
0#$^^
#0
0#$^^
#0
0#$^^
#0
0#$^^
#0
0#$^^
#0
0#$^^
#0
0#$^^
#0
0#$^^
#0
0#$^^
#0
0#$^^
#0
0#$^^
#0
0#$^^
#0
0#$^^
#0
0#$^^
#0
0#$^^
#0
0#$^^
#0
0#$^^
#0
0#$^^
#0
0#$^^
#0
0#$^^
#0
0#$^^
#0
0#$^^
#0
0#$^^
#0
0#$^^
#0
0#$^^
#0
0#$^^
#0
0#$^^
#0
0#$^^
#0
0#$^^
#0
0#$^^
#0
0#$^^
#0
0#$^^
#0
0#$^^
#0
0#$^^
#0
0#$^^
#0
0#$^^
#0
0#$^^
#0
0#$^^
#0
0#$^^
#0
0#$^^
#0
0#$^^
#0
0#$^^
#0
0#$^^
#0
0#$^^
#0
0#$^^
#0
0#$^^
#0
0#$^^
#0
0#$^^
#0
0#$^^
#0
0#$^^
#0
0#$^^
#0
0#$^^
#0
0#$^^
#0
0#$^^
#0
0#$^^
#0
0#$^^
#0
0#$^^
#0
0#$^^
#0
0#$^^
#0
0#$^^
#0
0#$^^
#0
0#$^^
#0
0#$^^
#0
0#$^^
#0
0#$^^
#0
0#$^^
#0
0#$^^
#0
0#$^^
#0
0#$^^
#0
0#$^^
#0
0#$^^
#0
0#$^^
#0
0#$^^
#0
0#$^^
#0
0#$^^
#0
0#$^^
#0
0#$^^
#0
0#$^^
#0
0#$^^
#0
0#$^^
#0
0#$^^
#0
0#$^^
#0
0#$^^
#0
0#$^^
#0
0#$^^
#0
0#$^^
#0
0#$^^
#0
0#$^^
#0
0#$^^
#0
0#$^^
#0
0#$^^
#0
0#$^^
#0
0#$^^
#0
0#$^^
#0
0#$^^
#0
0#$^^
#0
0#$^^
#0
0#$^^
#0
0#$^^
#0
0#$^^
#0
0#$^^
#0
0#$^^
#0
0#$^^
#0
0#$^^
#0
0#$^^
#0
0#$^^
#0
0#$^^
#0
0#$^^
#0
0#$^^
#0
0#$^^
#0
0#$^^
#0
0#$^^
#0
0#$^^
#0
0#$^^
#0
0#$^^
#0
0#$^^
#0
0#$^^
#0
0#$^^
#0
0#$^^
#0
0#$^^
#0
0#$^^
#0
0#$^^
#0
0#$^^
#0
0#$^^
#0
0#$^^
#0
0#$^^
#0
0#$^^
#0
0#$^^
#0
0#$^^
#0
0#$^^
#0
0#$^^
#0
0#$^^
#0
0#$^^
#0
0#$^^
#0
0#$^^
#0
0#$^^
#0
0#$^^
#0
0#$^^
#0
0#$^^
#0
0#$^^
#0
0#$^^
#0
0#$^^
#0
0#$^^
#0
0#$^^
#0
0#$^^
#0
0#$^^
#0
0#$^^
#0
0#$^^
#0
0#$^^
#0
0#$^^
#0
0#$^^
#0
0#$^^
#0
0#$^^
#0
0#$^^
#0
0#$^^
#0
0#$^^
#0
0#$^^
#0
0#$^^
#0
0#$^^
#0
0#$^^
#0
0#$^^
#0
0#$^^
#0
0#$^^
#0
0#$^^
#0
0#$^^
#0
0#$^^
#0
0#$^^
#0
0#$^^
#0
0#$^^
#0
0#$^^
#0
0#$^^
#0
0#$^^
#0
0#$^^
#0
0#$^^
#0
0#$^^
#0
0#$^^
#0
0#$^^
#0
0#$^^
#0
0#$^^
#0
0#$^^
#0
0#$^^
#0
0#$^^
#0
0#$^^
#0
0#$^^
#0
0#$^^
#0
0#$^^
#0
0#$^^
#0
0#$^^
#0
0#$^^
#0
0#$^^
#0
0#$^^
#0
0#$^^
#0
0#$^^
#0
0#$^^
#0
0#$^^
#0
0#$^^
#0
0#$^^
#0
0#$^^
#0
0#$^^
#0
0#$^^
#0
0#$^^
#0
0#$^^
#0
0#$^^
#0
0#$^^
#0
0#$^^
#0
0#$^^
#0
0#$^^
#0
0#$^^
#0
0#$^^
#0
0#$^^
#0
0#$^^
#0
0#$^^
#0
0#$^^
#0
0#$^^
#0
0#$^^
#0
0#$^^
#0
0#$^^
#0
0#$^^
#0
0#$^^
#0
0#$^^
#0
0#$^^
#0
0#$^^
#0
0#$^^
#0
0#$^^
#0
0#$^^
#0
0#$^^
#0
0#$^^
#0
0#$^^
#0
0#$^^
#0
0#$^^
#0
0#$^^
#0
0#$^^
#0
0#$^^
#0
0#$^^
#0
0#$^^
#0
0#$^^
#0
0#$^^
#0
0#$^^
#0
0#$^^
#0
0#$^^
#0
0#$^^
#0
0#$^^
#0
0#$^^
#0
0#$^^
#0
0#$^^
#0
0#$^^
#0
0#$^^
#0
0#$^^
#0
0#$^^
#0
0#$^^
#0
0#$^^
#0
0#$^^
#0
0#$^^
#0
0#$^^
#0
0#$^^
#0
0#$^^
#0
0#$^^
#0
0#$^^
#0
0#$^^
#0
0#$^^
#0
0#$^^
#0
0#$^^
#0
0#$^^
#0
0#$^^
#0
0#$^^
#0
0#$^^
#0
0#$^^
#0
0#$^^
#0
0#$^^
#0
0#$^^
#0
0#$^^
#0
0#$^^
#0
0#$^^
#0
0#$^^
#0
0#$^^
#0
0#$^^
#0
0#$^^
#0
0#$^^
#0
0#$^^
#0
0#$^^
